<?xml version="1.0" encoding="UTF-8"?>
<svg width="599px" height="261px" viewBox="0 0 599 261" version="1.1" xmlns="http://www.w3.org/2000/svg" xmlns:xlink="http://www.w3.org/1999/xlink">
    <title>Artboard</title>
    <g id="Artboard" stroke="none" stroke-width="1" fill="none" fill-rule="evenodd">
        <g id="Group-Copy" transform="translate(2.000000, 14.000000)">
            <g id="Group-2" fill="#7B7699" stroke="#2C2C54" stroke-width="3">
                <rect id="Rectangle" x="0" y="171" width="25" height="56"></rect>
                <rect id="Rectangle-Copy-3" x="58" y="126" width="99" height="68"></rect>
                <rect id="Rectangle-Copy-4" x="40" y="4" width="48" height="40"></rect>
                <rect id="Rectangle-Copy-7" x="121" y="99" width="25" height="23"></rect>
                <rect id="Rectangle-Copy-8" x="160" y="99" width="15" height="23"></rect>
                <rect id="Rectangle-Copy-10" x="178" y="199" width="15" height="18"></rect>
                <rect id="Rectangle-Copy-9" x="189" y="84" width="15" height="56"></rect>
                <rect id="Rectangle-Copy-5" x="178" y="0" width="79" height="12"></rect>
                <rect id="Rectangle" x="451" y="16" width="17" height="45"></rect>
                <rect id="Rectangle" x="482" y="6" width="57" height="63"></rect>
                <rect id="Rectangle-Copy-13" x="468" y="78" width="71" height="121"></rect>
                <rect id="Rectangle-Copy-12" x="441" y="192" width="10" height="10"></rect>
                <rect id="Rectangle" x="227" y="160" width="70" height="42"></rect>
                <rect id="Rectangle-Copy-12" x="456" y="192" width="10" height="10"></rect>
                <rect id="Rectangle-Copy-5" x="128" y="16" width="84" height="40"></rect>
            </g>
            <rect id="Rectangle-Copy-2" stroke="#332E54" stroke-width="2" fill="#645E6D" x="43" y="134" width="10" height="83"></rect>
            <rect id="Rectangle-Copy-6" stroke="#332E54" stroke-width="2" fill="#645E6D" x="78" y="48" width="25" height="59"></rect>
            <rect id="Rectangle-Copy-11" stroke="#332E54" stroke-width="2" fill="#645E6D" x="311" y="176" width="28" height="51"></rect>
            <rect id="Rectangle-Copy-12" stroke="#332E54" stroke-width="2" fill="#645E6D" x="379" y="176" width="10" height="51"></rect>
            <rect id="Rectangle-Copy-12" stroke="#332E54" stroke-width="2" fill="#645E6D" x="394" y="176" width="10" height="51"></rect>
            <rect id="Rectangle" stroke="#332E54" stroke-width="2" fill="#645E6D" x="274" y="28" width="139" height="106"></rect>
            <rect id="Rectangle-Copy-5" stroke="#332E54" stroke-width="2" fill="#645E6D" x="345" y="6" width="94" height="12"></rect>
        </g>
    </g>
</svg>